%YAML 1.1
%TAG !u! tag:unity3d.com,2011:
--- !u!114 &11400000
MonoBehaviour:
  m_ObjectHideFlags: 0
  m_CorrespondingSourceObject: {fileID: 0}
  m_PrefabInstance: {fileID: 0}
  m_PrefabAsset: {fileID: 0}
  m_GameObject: {fileID: 0}
  m_Enabled: 1
  m_EditorHideFlags: 0
  m_Script: {fileID: 11500000, guid: ad6f5d89abd2c7c429c656b0b11a9b3c, type: 3}
  m_Name: _RemainInState
  m_EditorClassIdentifier: 
  actions: []
  transitions: []
  sceneGizmoColor: {r: 0.5, g: 0.5, b: 0.5, a: 1}
