%YAML 1.1
%TAG !u! tag:unity3d.com,2011:
--- !u!114 &11400000
MonoBehaviour:
  m_ObjectHideFlags: 0
  m_CorrespondingSourceObject: {fileID: 0}
  m_PrefabInstance: {fileID: 0}
  m_PrefabAsset: {fileID: 0}
  m_GameObject: {fileID: 0}
  m_Enabled: 1
  m_EditorHideFlags: 0
  m_Script: {fileID: 11500000, guid: ad6f5d89abd2c7c429c656b0b11a9b3c, type: 3}
  m_Name: Player_Idle
  m_EditorClassIdentifier: 
  actions: []
  transitions:
  - decisions:
    - {fileID: 11400000, guid: 40dc403bfbcad184c9aca372c3cf4fb1, type: 2}
    trueState: {fileID: 11400000, guid: 66c732bf0eeec5d46b35fa5470d02444, type: 2}
    falseState: {fileID: 11400000, guid: 655509ced9efdec40b80384e429385aa, type: 2}
  - decisions:
    - {fileID: 11400000, guid: 48fe5123f22ec094c8afca7b32408d84, type: 2}
    - {fileID: 11400000, guid: 921c6f84ad7eec34dac3fa953cf1443a, type: 2}
    trueState: {fileID: 11400000, guid: 206556b9d9f8bd14887dc04b60dd20e3, type: 2}
    falseState: {fileID: 11400000, guid: 655509ced9efdec40b80384e429385aa, type: 2}
  - decisions:
    - {fileID: 11400000, guid: 369eb56ad43a02b4ab0af52072477a1e, type: 2}
    trueState: {fileID: 11400000, guid: 4ac99ef287b1ad94db74c1aba9ad8bfa, type: 2}
    falseState: {fileID: 11400000, guid: 655509ced9efdec40b80384e429385aa, type: 2}
  - decisions:
    - {fileID: 11400000, guid: 368e2fd70f36a6d4a9908a777802eae6, type: 2}
    trueState: {fileID: 11400000, guid: 499f975691ebd264cb470a361cdddd81, type: 2}
    falseState: {fileID: 11400000, guid: 655509ced9efdec40b80384e429385aa, type: 2}
  - decisions:
    - {fileID: 11400000, guid: 4b18d7f67cd114947b24533231516b8b, type: 2}
    trueState: {fileID: 11400000, guid: 673efb49856e6f74fbed7d84398aa66d, type: 2}
    falseState: {fileID: 11400000, guid: 655509ced9efdec40b80384e429385aa, type: 2}
  - decisions:
    - {fileID: 11400000, guid: ff4baa036db58f1458b420d5f3bdd4c5, type: 2}
    trueState: {fileID: 11400000, guid: 813ed056d9497234c9c7efc80df36080, type: 2}
    falseState: {fileID: 11400000, guid: 655509ced9efdec40b80384e429385aa, type: 2}
