%YAML 1.1
%TAG !u! tag:unity3d.com,2011:
--- !u!114 &11400000
MonoBehaviour:
  m_ObjectHideFlags: 0
  m_CorrespondingSourceObject: {fileID: 0}
  m_PrefabInstance: {fileID: 0}
  m_PrefabAsset: {fileID: 0}
  m_GameObject: {fileID: 0}
  m_Enabled: 1
  m_EditorHideFlags: 0
  m_Script: {fileID: 11500000, guid: ad6f5d89abd2c7c429c656b0b11a9b3c, type: 3}
  m_Name: Player_Respawn
  m_EditorClassIdentifier: 
  actions:
  - {fileID: 11400000, guid: e0438da41c575584aa6b7ea6f9e3d5bb, type: 2}
  - {fileID: 11400000, guid: 702e56854f83ae34796d2f318baf2dcf, type: 2}
  transitions:
  - decisions:
    - {fileID: 11400000, guid: 418eb5f5043c35440b7b6f7e50751e42, type: 2}
    trueState: {fileID: 11400000, guid: 25efb5389d2b19140a521f8e943eb695, type: 2}
    falseState: {fileID: 11400000, guid: 655509ced9efdec40b80384e429385aa, type: 2}
