%YAML 1.1
%TAG !u! tag:unity3d.com,2011:
--- !u!114 &11400000
MonoBehaviour:
  m_ObjectHideFlags: 0
  m_CorrespondingSourceObject: {fileID: 0}
  m_PrefabInstance: {fileID: 0}
  m_PrefabAsset: {fileID: 0}
  m_GameObject: {fileID: 0}
  m_Enabled: 1
  m_EditorHideFlags: 0
  m_Script: {fileID: 11500000, guid: 143b916916707c74baf6e5f06b2449fe, type: 3}
  m_Name: LoadsOfBullets
  m_EditorClassIdentifier: 
  name: BigProjectiles
  icon: {fileID: 0}
  charge: 0
  homing: 0
  wobble: 0
  cluster: 0
  projSizeMulti: 0.5
  lifetimeMulti: 1
  speedMulti: 1
  damageMulti: 0.2
  force: 0
  wobbleSpeed: 0
  wobbleMagnitude: 0
  rateOfFireMulti: 0.6
  overheatMulti: 1
  projMulti: 10
  projForwardOffset: 36
  dmgType: 0
  statusBuildUp: 0
