%YAML 1.1
%TAG !u! tag:unity3d.com,2011:
--- !u!114 &11400000
MonoBehaviour:
  m_ObjectHideFlags: 0
  m_CorrespondingSourceObject: {fileID: 0}
  m_PrefabInstance: {fileID: 0}
  m_PrefabAsset: {fileID: 0}
  m_GameObject: {fileID: 0}
  m_Enabled: 1
  m_EditorHideFlags: 0
  m_Script: {fileID: 11500000, guid: 92f6cab54894daf4dbf29ebb5ef87641, type: 3}
  m_Name: 
  m_EditorClassIdentifier: 
  serializationData:
    SerializedFormat: 2
    SerializedBytes: 
    ReferencedUnityObjects: []
    SerializedBytesString: 
    Prefab: {fileID: 0}
    PrefabModificationsReferencedUnityObjects: []
    PrefabModifications: []
    SerializationNodes:
    - Name: resources
      Entry: 7
      Data: 0|System.Collections.Generic.Dictionary`2[[System.String, mscorlib],[System.Single,
        mscorlib]], mscorlib
    - Name: comparer
      Entry: 7
      Data: 1|System.Collections.Generic.GenericEqualityComparer`1[[System.String,
        mscorlib]], mscorlib
    - Name: 
      Entry: 8
      Data: 
    - Name: 
      Entry: 12
      Data: 4
    - Name: 
      Entry: 7
      Data: 
    - Name: $k
      Entry: 1
      Data: hp
    - Name: $v
      Entry: 4
      Data: 50
    - Name: 
      Entry: 8
      Data: 
    - Name: 
      Entry: 7
      Data: 
    - Name: $k
      Entry: 1
      Data: mana
    - Name: $v
      Entry: 4
      Data: 100
    - Name: 
      Entry: 8
      Data: 
    - Name: 
      Entry: 7
      Data: 
    - Name: $k
      Entry: 1
      Data: stamina
    - Name: $v
      Entry: 4
      Data: 100
    - Name: 
      Entry: 8
      Data: 
    - Name: 
      Entry: 7
      Data: 
    - Name: $k
      Entry: 1
      Data: jumpCount
    - Name: $v
      Entry: 4
      Data: 1
    - Name: 
      Entry: 8
      Data: 
    - Name: 
      Entry: 13
      Data: 
    - Name: 
      Entry: 8
      Data: 
    - Name: stats
      Entry: 7
      Data: 2|System.Collections.Generic.Dictionary`2[[System.String, mscorlib],[System.Single,
        mscorlib]], mscorlib
    - Name: comparer
      Entry: 9
      Data: 1
    - Name: 
      Entry: 12
      Data: 8
    - Name: 
      Entry: 7
      Data: 
    - Name: $k
      Entry: 1
      Data: moveSpeed
    - Name: $v
      Entry: 4
      Data: 5
    - Name: 
      Entry: 8
      Data: 
    - Name: 
      Entry: 7
      Data: 
    - Name: $k
      Entry: 1
      Data: sprintSpeed
    - Name: $v
      Entry: 4
      Data: 7.5
    - Name: 
      Entry: 8
      Data: 
    - Name: 
      Entry: 7
      Data: 
    - Name: $k
      Entry: 1
      Data: jumpHeight
    - Name: $v
      Entry: 4
      Data: 5
    - Name: 
      Entry: 8
      Data: 
    - Name: 
      Entry: 7
      Data: 
    - Name: $k
      Entry: 1
      Data: jumpTime
    - Name: $v
      Entry: 4
      Data: 0.5
    - Name: 
      Entry: 8
      Data: 
    - Name: 
      Entry: 7
      Data: 
    - Name: $k
      Entry: 1
      Data: rotationTime
    - Name: $v
      Entry: 4
      Data: 0.05
    - Name: 
      Entry: 8
      Data: 
    - Name: 
      Entry: 7
      Data: 
    - Name: $k
      Entry: 1
      Data: detectionRadius
    - Name: $v
      Entry: 4
      Data: 10
    - Name: 
      Entry: 8
      Data: 
    - Name: 
      Entry: 7
      Data: 
    - Name: $k
      Entry: 1
      Data: scanRadius
    - Name: $v
      Entry: 4
      Data: 10
    - Name: 
      Entry: 8
      Data: 
    - Name: 
      Entry: 7
      Data: 
    - Name: $k
      Entry: 1
      Data: fallMultiplier
    - Name: $v
      Entry: 4
      Data: 2
    - Name: 
      Entry: 8
      Data: 
    - Name: 
      Entry: 13
      Data: 
    - Name: 
      Entry: 8
      Data: 
    - Name: cooldowns
      Entry: 7
      Data: 3|System.Collections.Generic.Dictionary`2[[System.String, mscorlib],[System.Single,
        mscorlib]], mscorlib
    - Name: comparer
      Entry: 9
      Data: 1
    - Name: 
      Entry: 12
      Data: 2
    - Name: 
      Entry: 7
      Data: 
    - Name: $k
      Entry: 1
      Data: dashCooldown
    - Name: $v
      Entry: 4
      Data: 1
    - Name: 
      Entry: 8
      Data: 
    - Name: 
      Entry: 7
      Data: 
    - Name: $k
      Entry: 1
      Data: jumpDelay
    - Name: $v
      Entry: 4
      Data: 0.3
    - Name: 
      Entry: 8
      Data: 
    - Name: 
      Entry: 13
      Data: 
    - Name: 
      Entry: 8
      Data: 
  boolChecks:
  - damageTaken
  - isStaggered
  - isGrounded
  - isColliding
  - canJump
  - isJumping
  - isFalling
